^H:\LABS\MP2-LAB1-SET\TEST\TEST_MAIN.CPP
/c /I../../../gtest /I../../../include /ZI /nologo /W3 /WX- /Od /Oy- /D WIN32 /D _DEBUG /D _CONSOLE /D _UNICODE /D UNICODE /Gm /EHsc /RTC1 /MDd /GS /fp:precise /Zc:wchar_t /Zc:forScope /Fo"DEBUG\\" /Fd"DEBUG\VC120.PDB" /Gd /TP /analyze- H:\LABS\MP2-LAB1-SET\TEST\TEST_MAIN.CPP
^H:\LABS\MP2-LAB1-SET\TEST\TEST_TBITFIELD.CPP
/c /I../../../gtest /I../../../include /ZI /nologo /W3 /WX- /Od /Oy- /D WIN32 /D _DEBUG /D _CONSOLE /D _UNICODE /D UNICODE /Gm /EHsc /RTC1 /MDd /GS /fp:precise /Zc:wchar_t /Zc:forScope /Fo"DEBUG\\" /Fd"DEBUG\VC120.PDB" /Gd /TP /analyze- H:\LABS\MP2-LAB1-SET\TEST\TEST_TBITFIELD.CPP
^H:\LABS\MP2-LAB1-SET\TEST\TEST_TSET.CPP
/c /I../../../gtest /I../../../include /ZI /nologo /W3 /WX- /Od /Oy- /D WIN32 /D _DEBUG /D _CONSOLE /D _UNICODE /D UNICODE /Gm /EHsc /RTC1 /MDd /GS /fp:precise /Zc:wchar_t /Zc:forScope /Fo"DEBUG\\" /Fd"DEBUG\VC120.PDB" /Gd /TP /analyze- H:\LABS\MP2-LAB1-SET\TEST\TEST_TSET.CPP
^H:\LABS\MP2-LAB1-SET\SRC\ВИНОГРАДОВА ЕКАТЕРИНА\TEST\TEST_MAIN.CPP
/c /I../../../gtest /I../../../include /ZI /nologo /W3 /WX- /Od /Oy- /D WIN32 /D _DEBUG /D _CONSOLE /D _UNICODE /D UNICODE /Gm /EHsc /RTC1 /MDd /GS /fp:precise /Zc:wchar_t /Zc:forScope /Fo"DEBUG\\" /Fd"DEBUG\VC120.PDB" /Gd /TP /analyze- H:\LABS\MP2-LAB1-SET\SRC\ВИНОГРАДОВА ЕКАТЕРИНА\TEST\TEST_MAIN.CPP
^H:\LABS\MP2-LAB1-SET\SRC\ВИНОГРАДОВА ЕКАТЕРИНА\TEST\TEST_TBITFIELD.CPP
/c /I../../../gtest /I../../../include /ZI /nologo /W3 /WX- /Od /Oy- /D WIN32 /D _DEBUG /D _CONSOLE /D _UNICODE /D UNICODE /Gm /EHsc /RTC1 /MDd /GS /fp:precise /Zc:wchar_t /Zc:forScope /Fo"DEBUG\\" /Fd"DEBUG\VC120.PDB" /Gd /TP /analyze- H:\LABS\MP2-LAB1-SET\SRC\ВИНОГРАДОВА ЕКАТЕРИНА\TEST\TEST_TBITFIELD.CPP
^H:\LABS\MP2-LAB1-SET\SRC\ВИНОГРАДОВА ЕКАТЕРИНА\TEST\TEST_TSET.CPP
/c /I../../../gtest /I../../../include /ZI /nologo /W3 /WX- /Od /Oy- /D WIN32 /D _DEBUG /D _CONSOLE /D _UNICODE /D UNICODE /Gm /EHsc /RTC1 /MDd /GS /fp:precise /Zc:wchar_t /Zc:forScope /Fo"DEBUG\\" /Fd"DEBUG\VC120.PDB" /Gd /TP /analyze- H:\LABS\MP2-LAB1-SET\SRC\ВИНОГРАДОВА ЕКАТЕРИНА\TEST\TEST_TSET.CPP
